^E:\DOCUMENTATIE\SMART GIT\DIJKSTRA\DIJKSTRA\DIJKSTRA\CLASAGRAF.CPP
/c /ZI /JMC /nologo /W3 /WX- /diagnostics:classic /sdl /Od /Oy- /D _MBCS /Gm- /EHsc /RTC1 /MDd /GS /fp:precise /permissive- /Zc:wchar_t /Zc:forScope /Zc:inline /Fo"DEBUG\\" /Fd"DEBUG\VC141.PDB" /Gd /TP /analyze- /FC E:\DOCUMENTATIE\SMART GIT\DIJKSTRA\DIJKSTRA\DIJKSTRA\CLASAGRAF.CPP
^E:\DOCUMENTATIE\SMART GIT\DIJKSTRA\DIJKSTRA\DIJKSTRA\DIJKSTRA.CPP
/c /ZI /JMC /nologo /W3 /WX- /diagnostics:classic /sdl /Od /Oy- /D _MBCS /Gm- /EHsc /RTC1 /MDd /GS /fp:precise /permissive- /Zc:wchar_t /Zc:forScope /Zc:inline /Fo"DEBUG\\" /Fd"DEBUG\VC141.PDB" /Gd /TP /analyze- /FC E:\DOCUMENTATIE\SMART GIT\DIJKSTRA\DIJKSTRA\DIJKSTRA\DIJKSTRA.CPP
